pLECs,DMOG,Day,Well,Value
FALSE,FALSE,1,1,1.497006
FALSE,FALSE,1,1,1.485149
FALSE,FALSE,1,1,2.407705
FALSE,FALSE,1,2,2.48139
FALSE,FALSE,1,2,2.227723
FALSE,FALSE,1,2,1.902174
FALSE,TRUE,1,3,0.27248
FALSE,TRUE,1,3,0.828729
FALSE,TRUE,1,3,0.590319
FALSE,TRUE,1,4,1.217656
FALSE,TRUE,1,4,0.305344
FALSE,TRUE,1,4,0.538358
TRUE,FALSE,1,5,5.428882
TRUE,FALSE,1,5,6.298343
TRUE,FALSE,1,5,8.649789
TRUE,FALSE,1,6,16.05206
TRUE,FALSE,1,6,18.30403
TRUE,FALSE,1,6,15.89806
TRUE,TRUE,1,7,14.05564
TRUE,TRUE,1,7,14.66373
TRUE,TRUE,1,7,15.08571
TRUE,TRUE,1,8,35.38324
TRUE,TRUE,1,8,23.67257
TRUE,TRUE,1,8,15.625
